{
  "profiles": {
    "kestrel": {
      "commandName": "Project",
      "environmentVariables": {
        "LOG_FORMAT": "plain",
        "ASPNETCORE_ENVIRONMENT": "Development",
        "CONFIGURATION_NAME": "number-generator",
        "CONFIGURATION_URL": "http://foundation.dev.lendfoundry.com:7001",
        "EVENTHUB_URL": "http://foundation.dev.lendfoundry.com:7002",
        "NATS_URL": "nats://10.100.0.13:4222",
        "TENANT_URL": "http://foundation.dev.lendfoundry.com:7003",
        "LOG_LEVEL": "Debug"
      }
    }
  }
}